<?xml version="1.0" encoding="UTF-8"?>
<testng-results skipped="0" failed="0" total="0" passed="0">
  <reporter-output>
  </reporter-output>
  <suite name="com.paymentcenter.testcases.runTest" duration-ms="6" started-at="2017-06-14T13:24:01Z" finished-at="2017-06-14T13:24:01Z">
    <groups>
    </groups>
    <test name="Command line test" duration-ms="6" started-at="2017-06-14T13:24:01Z" finished-at="2017-06-14T13:24:01Z">
    </test> <!-- Command line test -->
  </suite> <!-- com.paymentcenter.testcases.runTest -->
</testng-results>
